<?xml version="1.0" encoding="utf-8"?>
<!-- Generator: Adobe Illustrator 16.0.0, SVG Export Plug-In . SVG Version: 6.00 Build 0)  -->
<!DOCTYPE svg PUBLIC "-//W3C//DTD SVG 1.1//EN" "http://www.w3.org/Graphics/SVG/1.1/DTD/svg11.dtd">
<svg version="1.1" id="Layer_1" xmlns="http://www.w3.org/2000/svg" xmlns:xlink="http://www.w3.org/1999/xlink" x="0px" y="0px"
	 width="1024px" height="1024px" viewBox="0 0 1024 1024" enable-background="new 0 0 1024 1024" xml:space="preserve">
<rect x="0" y="0" fill="#FFFFFF" width="12" height="1024"/>
<line fill="#FCFCFC" stroke="#F2F2F2" stroke-miterlimit="10" x1="-63.839" y1="0.163" x2="-63.839" y2="1027.681"/>
<g>
	<polygon fill="#FFFFFF" points="435.995,509.919 357.585,433.118 376.798,413.914 511.214,548.319 647.227,412.314 666.414,431.51 
		511.214,586.727 491.991,567.515 	"/>
</g>
</svg>
