<?xml version="1.0" encoding="utf-8"?>
<!-- Generator: Adobe Illustrator 22.1.0, SVG Export Plug-In . SVG Version: 6.00 Build 0)  -->
<svg version="1.1" id="Layer_1" xmlns="http://www.w3.org/2000/svg" xmlns:xlink="http://www.w3.org/1999/xlink" x="0px" y="0px"
	 viewBox="0 0 372.9 64" style="enable-background:new 0 0 372.9 64;" xml:space="preserve">
<style type="text/css">
	.st0{opacity:0.2;enable-background:new    ;}
	.st1{font-family:'Noteworthy-Bold';}
	.st2{font-size:33.6929px;}
</style>
<text transform="matrix(1 0 0 1 -0.1582 40.5453)" class="st0 st1 st2">Progressive Developments</text>
</svg>
